{
  "project_info": {
    "project_number": "48511463661",
    "firebase_url": "https://emailfirebase-6bede.firebaseio.com",
    "project_id": "emailfirebase-6bede",
    "storage_bucket": "emailfirebase-6bede.appspot.com"
  },
  "client": [
    {
      "client_info": {
        "mobilesdk_app_id": "1:48511463661:android:04ad5418ac750a76",
        "android_client_info": {
          "package_name": "com.example.deenwebindia.emailfirebase"
        }
      },
      "oauth_client": [
        {
          "client_id": "48511463661-iihmk3gmvlutsfto26b4rdj0m3o4hoq1.apps.googleusercontent.com",
          "client_type": 1,
          "android_info": {
            "package_name": "com.example.deenwebindia.emailfirebase",
            "certificate_hash": "4a66d98f71fba3d4bf4179998238c07bb9294c40"
          }
        },
        {
          "client_id": "48511463661-2lmce1roqn4ssq764tg5otdr78sa7r9r.apps.googleusercontent.com",
          "client_type": 3
        }
      ],
      "api_key": [
        {
          "current_key": "AIzaSyABosEfCzSMWCfBImxXUudIqdlp5XIbVbI"
        }
      ],
      "services": {
        "analytics_service": {
          "status": 1
        },
        "appinvite_service": {
          "status": 2,
          "other_platform_oauth_client": [
            {
              "client_id": "48511463661-2lmce1roqn4ssq764tg5otdr78sa7r9r.apps.googleusercontent.com",
              "client_type": 3
            }
          ]
        },
        "ads_service": {
          "status": 2
        }
      }
    },
    {
      "client_info": {
        "mobilesdk_app_id": "1:48511463661:android:0bd75872e1ba2fa9",
        "android_client_info": {
          "package_name": "deenwebindia.com.ebhaada"
        }
      },
      "oauth_client": [
        {
          "client_id": "48511463661-tdqqe7gd869p6od7r881828fg4tq2890.apps.googleusercontent.com",
          "client_type": 1,
          "android_info": {
            "package_name": "deenwebindia.com.ebhaada",
            "certificate_hash": "4a66d98f71fba3d4bf4179998238c07bb9294c40"
          }
        },
        {
          "client_id": "48511463661-2lmce1roqn4ssq764tg5otdr78sa7r9r.apps.googleusercontent.com",
          "client_type": 3
        }
      ],
      "api_key": [
        {
          "current_key": "AIzaSyABosEfCzSMWCfBImxXUudIqdlp5XIbVbI"
        }
      ],
      "services": {
        "analytics_service": {
          "status": 1
        },
        "appinvite_service": {
          "status": 2,
          "other_platform_oauth_client": [
            {
              "client_id": "48511463661-2lmce1roqn4ssq764tg5otdr78sa7r9r.apps.googleusercontent.com",
              "client_type": 3
            }
          ]
        },
        "ads_service": {
          "status": 2
        }
      }
    },
    {
      "client_info": {
        "mobilesdk_app_id": "1:48511463661:android:d842af33038fad5c",
        "android_client_info": {
          "package_name": "info.androidhive.firebase"
        }
      },
      "oauth_client": [
        {
          "client_id": "48511463661-ief4inghiu9k21doaqps9e8ns28kqlvi.apps.googleusercontent.com",
          "client_type": 1,
          "android_info": {
            "package_name": "info.androidhive.firebase",
            "certificate_hash": "4a66d98f71fba3d4bf4179998238c07bb9294c40"
          }
        },
        {
          "client_id": "48511463661-2lmce1roqn4ssq764tg5otdr78sa7r9r.apps.googleusercontent.com",
          "client_type": 3
        }
      ],
      "api_key": [
        {
          "current_key": "AIzaSyABosEfCzSMWCfBImxXUudIqdlp5XIbVbI"
        }
      ],
      "services": {
        "analytics_service": {
          "status": 1
        },
        "appinvite_service": {
          "status": 2,
          "other_platform_oauth_client": [
            {
              "client_id": "48511463661-2lmce1roqn4ssq764tg5otdr78sa7r9r.apps.googleusercontent.com",
              "client_type": 3
            }
          ]
        },
        "ads_service": {
          "status": 2
        }
      }
    }
  ],
  "configuration_version": "1"
}